%YAML 1.1
%TAG !u! tag:unity3d.com,2011:
--- !u!1 &6045102457607226588
GameObject:
  m_ObjectHideFlags: 0
  m_CorrespondingSourceObject: {fileID: 0}
  m_PrefabInstance: {fileID: 0}
  m_PrefabAsset: {fileID: 0}
  serializedVersion: 6
  m_Component:
  - component: {fileID: 6416548006122073499}
  - component: {fileID: 1744744641440434616}
  - component: {fileID: 237366754536808735}
  m_Layer: 0
  m_Name: AvatarElement
  m_TagString: Untagged
  m_Icon: {fileID: 0}
  m_NavMeshLayer: 0
  m_StaticEditorFlags: 0
  m_IsActive: 1
--- !u!4 &6416548006122073499
Transform:
  m_ObjectHideFlags: 0
  m_CorrespondingSourceObject: {fileID: 0}
  m_PrefabInstance: {fileID: 0}
  m_PrefabAsset: {fileID: 0}
  m_GameObject: {fileID: 6045102457607226588}
  m_LocalRotation: {x: 0, y: 0, z: 0, w: 1}
  m_LocalPosition: {x: 0, y: 0, z: 0}
  m_LocalScale: {x: 20, y: 20, z: 20}
  m_Children: []
  m_Father: {fileID: 0}
  m_RootOrder: 0
  m_LocalEulerAnglesHint: {x: 0, y: 0, z: 0}
--- !u!33 &1744744641440434616
MeshFilter:
  m_ObjectHideFlags: 0
  m_CorrespondingSourceObject: {fileID: 0}
  m_PrefabInstance: {fileID: 0}
  m_PrefabAsset: {fileID: 0}
  m_GameObject: {fileID: 6045102457607226588}
  m_Mesh: {fileID: 4997154404573973136, guid: 7a9d44ca213bbde4f8dfd07b39216c81, type: 3}
--- !u!23 &237366754536808735
MeshRenderer:
  m_ObjectHideFlags: 0
  m_CorrespondingSourceObject: {fileID: 0}
  m_PrefabInstance: {fileID: 0}
  m_PrefabAsset: {fileID: 0}
  m_GameObject: {fileID: 6045102457607226588}
  m_Enabled: 1
  m_CastShadows: 1
  m_ReceiveShadows: 1
  m_DynamicOccludee: 1
  m_MotionVectors: 1
  m_LightProbeUsage: 1
  m_ReflectionProbeUsage: 1
  m_RayTracingMode: 2
  m_RayTraceProcedural: 0
  m_RenderingLayerMask: 257
  m_RendererPriority: 0
  m_Materials:
  - {fileID: -183629580528725936, guid: 7a9d44ca213bbde4f8dfd07b39216c81, type: 3}
  - {fileID: 6226351624755025785, guid: 7a9d44ca213bbde4f8dfd07b39216c81, type: 3}
  - {fileID: 3239462805146011567, guid: 7a9d44ca213bbde4f8dfd07b39216c81, type: 3}
  - {fileID: -4656868916713686633, guid: 7a9d44ca213bbde4f8dfd07b39216c81, type: 3}
  - {fileID: -2775345982098960131, guid: 7a9d44ca213bbde4f8dfd07b39216c81, type: 3}
  - {fileID: -4402207274608841001, guid: 7a9d44ca213bbde4f8dfd07b39216c81, type: 3}
  - {fileID: -2256193131107941759, guid: 7a9d44ca213bbde4f8dfd07b39216c81, type: 3}
  m_StaticBatchInfo:
    firstSubMesh: 0
    subMeshCount: 0
  m_StaticBatchRoot: {fileID: 0}
  m_ProbeAnchor: {fileID: 0}
  m_LightProbeVolumeOverride: {fileID: 0}
  m_ScaleInLightmap: 1
  m_ReceiveGI: 1
  m_PreserveUVs: 0
  m_IgnoreNormalsForChartDetection: 0
  m_ImportantGI: 0
  m_StitchLightmapSeams: 1
  m_SelectedEditorRenderState: 3
  m_MinimumChartSize: 4
  m_AutoUVMaxDistance: 0.5
  m_AutoUVMaxAngle: 89
  m_LightmapParameters: {fileID: 0}
  m_SortingLayerID: 0
  m_SortingLayer: 0
  m_SortingOrder: 0
  m_AdditionalVertexStreams: {fileID: 0}
